Data Mining: Übung 05
…
Cross Validation Beispiel Teil 01

data_cv <- data_poke %>% select(-c("name","generation","type_1"))
folds <- vfold_cv(data_poke, v = 5)

Zugriff über analysis und assessment Funktion:

folds$splits[[1]] %>% analysis()

# A tibble: 120 × 11
   name  type_1 combat_power    hp attack defense sp_atk sp_def speed generation
   <chr> <fct>         <int> <int>  <int>   <int>  <int>  <int> <int>      <int>
 1 Bulb… Grass           318    45     49      49     65     65    45          1
 2 Ivys… Grass           405    60     62      63     80     80    60          1
 3 Venu… Grass           525    80     82      83    100    100    80          1
 4 Char… Fire            309    39     52      43     60     50    65          1
 5 Char… Fire            405    58     64      58     80     65    80          1
 6 Squi… Water           314    44     48      65     50     64    43          1
 7 Wart… Water           405    59     63      80     65     80    58          1
 8 Cate… Bug             195    45     30      35     20     20    45          1
 9 Butt… Bug             395    60     45      50     90     80    70          1
10 Weed… Bug             195    40     35      30     20     20    50          1
# ℹ 110 more rows
# ℹ 1 more variable: legendary <lgl>
…
